Base path: C:/Program Files/Unity/Editor/Data
Cmd: initializeCompiler
Cmd: compileComputeKernel
  api=4 insize=7330 outsize=9653 ok=1
Cmd: compileComputeKernel
  api=4 insize=5004 outsize=3709 ok=1
Cmd: compileComputeKernel
  api=4 insize=9166 outsize=8717 ok=1
Cmd: compileComputeKernel
  api=4 insize=1470 outsize=545 ok=1
Cmd: compileComputeKernel
  api=4 insize=2867 outsize=1305 ok=1
Cmd: compileComputeKernel
  api=4 insize=1806 outsize=1365 ok=1
Cmd: compileComputeKernel
  api=4 insize=1806 outsize=537 ok=1
Cmd: compileComputeKernel
  api=4 insize=16784 outsize=5089 ok=1
Cmd: compileComputeKernel
  api=4 insize=16784 outsize=5209 ok=1
Cmd: compileComputeKernel
  api=4 insize=16784 outsize=6985 ok=1
Cmd: compileComputeKernel
  api=4 insize=16784 outsize=9429 ok=1
Cmd: compileComputeKernel
  api=4 insize=16784 outsize=6541 ok=1
Cmd: compileComputeKernel
  api=4 insize=16784 outsize=8245 ok=1
Cmd: compileComputeKernel
  api=4 insize=16784 outsize=8477 ok=1
Cmd: compileComputeKernel
  api=4 insize=16784 outsize=8253 ok=1
Cmd: compileComputeKernel
  api=4 insize=16784 outsize=10221 ok=1

Quitting shader compiler process
